{
    "nextId": 3,
    "items":[
      {
        "id": 1,
        "login": "mario01",
        "fullname": "Dorothy",
        "role": 1,
        "registeredAt": "2020-10-08",
        "avaUrl" : "https://encrypted-tbn0.gstatic.com/images?q=tbn:ANd9GcS8NX5iyfQvXbfZp0ZmZ4_JG_oX4wJBvrCh0g&usqp=CAU",
        "isEnabled": true,
        "bio": "Some information about this user"
      },
      {
        "id": 2,
        "login": "sonic",
        "fullname": "Jacob",
        "role": 0,
        "registeredAt": "2020-10-08",
        "avaUrl" : "https://i.pinimg.com/originals/0f/8b/ce/0f8bce19b0a52eb66fff032b17a71322.jpg",
        "isEnabled": false,
        "bio": "Another one"
      }
    ]
  }